696
1131
231
702
829
813
704
1915
1137
844
364
1537
3607
239
3520
1248
1139
348
3502
237
3483
705
2266
1264
3582
699
3629
3622
707
701
3623
703
2891
3628
835
819
1279
3595
3621
759
379
871
778
3167
3627
858
1134
1921
796
2591
850
313
883
1138
406
1136
242
1140
821
700
238
3619
3613
1306
3526
240
3568
3620
1213
1142
706
3537
3489
3553
3624
3588
236
3625
3601
3463
393
1293
294
3442
1543
1194
3528
3658
1923
837
2272
3508
3615
3644
1270
3641
354
370
852
3660
3491
3673
3636
1254
3647
3590
3674
3664
331
3626
3645
1231
3642
235
3639
3643
3680
418
816
3648
1135
836
1318
3510
3646
1141
3603
4818
241
822
3634
1920
1918
3675
2897
2597
356
3633
838
3665
1285
385
3173
820
832
3640
2274
4508
1256
3679
1924
2399
1670
824
3631
3678
3637
3672
2048
372
3653
2032
834
840
234
851
1272
3652
855
4911
4793
4339
4686
3638
847
3635
3676
3616
3585
4184
849
3529
3614
3527
3671
1287
4370
1540
3666
3618
3681
3994
3632
1922
387
3670
2275
3509
2269
3490
3651
3492
3531
3591
889
3494
3598
3486
2899
3593
904
802
3612
3604
3589
718
3799
3768
898
3574
903
905
739
19
1548
2383
3543
899
864
2894
3684
3469
823
3602
3525
3600
2277
1542
765
817
2271
1654
3448
839
3511
4779
514
4009
3606
3505
1545
2599
3587
3663
1255
784
897
833
877
357
1271
1919
3513
2090
1153
3175
3784
371
353
1997
3559
1273
1925
274
3530
367
3657
3978
2273
359
373
3617
3668
351
3524
1926
1174
3586
3507
1275
3611
3024
3592
2900
1257
3176
2896
386
1253
3493
3751
3300
1269
1544
369
253
1267
3943
1251
2594
698
1259
804
3650
2724
3714
854
3523
3605
1546
571
2902
3682
848
4806
3961
3667
4036
319
375
3677
1286
4023
3683
3838
3924
3487
3656
891
901
4355
3512
2600
412
2276
3599
902
3655
300
4514
1299
3577
3610
3826
853
3170
1541
1312
624
890
1133
399
3540
3562
1200
382
4917
3466
1219
4644
900
3661
1547
767
3556
3546
3506
895
2898
3472
1978
1324
233
3445
352
866
3178
673
2602
2077
4824
649
896
374
3451
3649
803
3571
766
867
1290
424
390
358
4345
2054
1258
4826
3471
4048
4516
865
2038
368
1340
3545
2441
768
1288
805
4834
2063
2598
543
1268
598
1237
3561
3576
1712
2405
1274
440
786
4692
892
1332
3174
3450
2270
388
4550
787
1132
1619
3813
1334
337
886
697
861
4409
1333
785
874
3654
781
4799
3573
2348
4376
2596
4840
4833
3548
3447
3579
4839
4838
1676
3453
879
302
3542
799
3008
878
1338
439
1202
762
232
1301
433
3474
3669
438
3468
3564
1339
3558
1337
1314
4190
434
426
106
1336
2056
3172
1239
430
389
3659
436
1699
432
2901
414
3522
383
1221
2895
431
4347
4378
1331
3609
2414
4801
4192
4919
4322
435
1289
1326
1201
3066
3284
1335
437
3575
894
355
4226
893
862
868
3560
184
1300
2057
2708
807
4694
3544
3470
339
4384
3984
3171
1917
3774
2601
2595
1238
2428
1660
320
3446
818
1685
1600
2102
4836
1006
806
863
5092
3563
2973
800
49
882
3572
413
5002
4837
2015
4000
3488
3790
3473
2389
789
3485
1325
801
2040
384
3547
400
764
301
3452
4827
3449
763
770
3597
3177
876
4825
425
869
1284
1313
3467
2051
3578
4517
3557
4832
978
2037
133
4015
1084
2041
3608
4515
2055
3584
3541
4835
401
1059
769
2673
2059
78
338
4785
1679
3504
1033
3030
875
881
783
2053
920
1108
4830
4821
2766
934
208
1315
4511
4831
4133
3733
4377
4695
159
3808
3949
3342
3249
788
4346
3662
415
4802
4829
3777
3997
4693
912
2043
2039
2035
3521
745
1309
3739
919
3844
4191
4003
4869
910
3757
3802
4042
4800
941
949
782
1678
2003
3832
4689
2268
3503
3306
4513
2069
1180
954
4823
409
4891
4519
888
4054
4788
3596
3583
4884
2730
3819
4920
3981
4812
3771
1662
4361
4342
4029
724
5114
1673
1222
1355
880
4914
956
280
5108
4858
5113
3987
1282
396
1347
4431
917
4855
4193
907
4373
4852
1663
4822
951
4782
1345
3793
4697
916
5112
2391
913
4828
259
4348
4796
4344
4187
936
1203
1916
2402
4845
3484
4379
921
4350
3720
4798
3967
4424
1302
3930
4850
1159
4871
4857
4885
1677
4002
4650
1354
4804
4012
4430
447
5106
952
4847
4423
4427
1216
4889
454
2392
4848
1317
928
455
4429
2408
4851
297
4842
4876
4381
5107
303
1197
4425
940
4916
2083
4854
1252
950
4856
5105
4512
445
4195
3805
4189
3570
3014
2036
1296
2058
1675
4844
4691
4859
909
915
918
411
1304
2042
4875
3807
4853
4922
456
924
1356
1657
2410
316
4421
427
4518
3846
2052
2071
4918
923
3053
1661
4428
3539
1386
4797
1937
3465
3999
4863
3779
1538
4004
2267
4057
727
1958
2893
3810
1298
1681
3951
2096
5110
3759
4814
4363
4422
2390
2386
322
4886
4887
3804
2329
4921
1724
911
3986
417
2404
4343
2714
1637
3847
5111
1316
5104
4890
1220
4883
1242
1321
1659
3772
489
4018
2366
689
4849
1691
4915
929
486
4862
4005
3778
421
3950
1205
742
4056
4001
3776
458
4690
1384
3998
1369
3822
3932
340
4380
4803
3630
1389
3841
1358
5109
230
914
3444
4647
4194
3795
3983
4556
2420
2954
946
1130
4426
4017
2403
1161
3809
3792
4045
3834
3806
282
2388
3989
1234
224
299
3329
2394
3169
948
4696
1680
4043
3969
927
3789
305
3952
4864
4188
485
3946
452
4032
429
4014
4415
3032
3033
3816
908
423
446
1375
3741
1329
281
887
484
416
3970
3845
3290
3775
3742
2453
4698
922
1352
1223
2654
476
694
1204
1297
4787
4055
2409
1303
1346
2288
2070
4492
3988
3803
1357
5098
2753
261
3982
3754
3820
1181
4051
2098
955
403
4030
321
334
2447
475
3931
323
304
3723
4039
397
1218
3933
2406
4020
2393
3027
1674
457
4784
1718
2309
4019
4364
693
747
688
3985
398
317
1391
25
4786
4783
3555
1350
3758
459
2097
2005
520
1664
1385
4016
4653
491
746
2407
410
3031
3736
469
1559
318
4809
451
1236
4881
1199
2387
4040
444
1217
4815
725
4789
947
3569
260
3954
3927
336
1198
2099
4813
1348
3964
1322
4358
471
4790
2354
4168
4673
2004
1156
4362
450
1359
1241
4013
1351
229
448
1328
2732
335
4026
3788
298
1123
3717
1129
2021
1658
4041
1371
4846
3554
1986
3538
1283
2108
3740
3307
744
3464
577
2066
222
228
4047
3039
4436
4349
944
2006
482
283
1235
1310
453
3849
3968
1162
5008
726
2892
2074
1342
3833
2093
422
2068
960
2072
341
1382
3787
4417
4558
3842
4655
1122
3011
1183
442
5100
2085
2733
428
5129
1164
1177
3762
1327
729
2731
223
1381
3309
4898
4053
481
939
5119
3308
4058
4652
723
277
1128
1693
3756
4232
3443
750
3744
4649
4438
5121
5128
2592
1387
324
933
4446
4882
4366
4390
4654
1985
258
4027
2084
4059
1625
4330
4874
3724
4199
1323
3017
3848
4651
3303
3953
463
4046
1984
3972
3823
692
4034
285
3837
3035
2335
2422
3817
4052
462
3824
2080
443
4445
1362
2000
1383
3935
517
4397
487
4817
3818
1390
1349
256
3947
4895
749
3168
449
2727
264
4374
4328
3928
3965
4648
1240
3016
1158
3831
523
1185
686
3029
3719
502
4811
1179
3725
4028
1343
559
279
959
4714
2421
3971
1224
4719
4360
2979
483
4720
2086
743
112
3948
4033
1124
28
3934
3718
604
1012
630
3761
5160
3966
4139
3721
679
4892
227
1606
4816
2101
846
3929
695
4375
4868
3738
4477
4329
2716
5099
22
2715
7
3028
574
3015
464
4879
728
3034
1127
4860
4877
5158
2002
5143
3821
3830
655
1178
549
2073
4718
580
3743
722
943
2739
521
1692
4557
4713
5120
5132
4810
958
2095
2593
4449
1987
3291
2008
691
1539
1160
284
586
5159
932
404
1914
721
1908
937
5145
278
226
637
1694
3292
225
942
221
4475
2711
3305
1125
2110
2423
1182
3760
531
3019
1163
931
4712
4872
1330
26
2717
2100
4359
1126
994
3293
94
5149
3737
4044
2094
4888
661
4460
2082
1688
2087
4866
522
1157
4462
5125
4893
5130
1627
5165
3348
957
2417
3315
926
190
3311
2023
27
3013
139
2735
257
4480
4447
1065
3012
4659
5163
2772
2436
4476
4365
1719
690
5124
685
492
220
263
4870
1377
2088
2007
5122
984
1121
4820
1120
3287
612
1983
5101
1720
1039
4392
953
4443
2679
2001
1114
84
4234
2109
2081
2022
342
214
2425
1392
4867
1281
5118
4441
477
381
607
165
5150
3310
2729
2356
3255
5157
658
4498
490
24
5095
1690
1912
172
30
2357
2444
1376
5116
519
1628
2105
4391
682
2734
1913
1708
1364
4466
4711
633
4467
4435
4448
4433
1608
4717
4418
5127
966
1964
2424
2355
552
4715
1988
4704
1982
1311
1072
578
4450
3304
601
627
1626
2728
4444
3791
2351
402
3045
5009
676
3755
1730
652
1536
4141
121
4412
4510
3289
2111
2024
845
2336
1021
5164
2434
2419
5138
2124
5155
3078
576
4559
4442
37
582
1943
4233
1705
4716
3860
3858
930
2018
5123
1565
1580
4481
2265
1906
1707
4710
1715
1388
546
1609
606
1530
2418
2435
687
2913
2294
66
579
4819
196
4553
2259
4865
2437
5156
3859
2718
2934
1280
5137
4472
2982
4174
748
3294
680
1014
1622
3230
1047
2122
115
3853
550
5136
4070
1907
1009
2719
2459
4453
815
1586
656
1363
4878
5103
55
4478
1607
2981
657
632
3836
4473
1643
2452
3843
4140
605
2118
114
1689
2446
4434
2991
380
147
1702
4894
470
2713
3075
3059
1266
1096
4063
488
3189
3441
4904
609
2338
3852
1092
2026
4861
1370
1603
4555
524
3515
3801
4679
4500
635
1722
2634
109
2980
4509
925
2116
3552
4325
4372
5161
4331
2257
2263
4751
1093
1630
2123
2431
603
1087
2613
350
3210
4749
4205
2449
3435
23
4068
5030
5097
2332
3536
1353
366
4254
5036
5029
2445
1013
831
4069
4062
1250
4913
5014
2359
681
548
3288
5035
518
3980
660
4260
1716
2117
3073
1940
4416
4764
1717
4771
2745
2712
4765
1961
1946
3516
3074
2121
5102
1535
1534
4735
193
140
2113
1981
2019
4755
3267
2107
4393
4011
985
554
141
629
885
4769
3835
4756
86
678
2025
684
2890
3514
2106
2691
4403
2264
187
4414
1529
2120
2759
1116
2020
5028
4252
4537
1040
3321
3567
4176
2112
192
575
2660
2778
3460
2976
797
5005
1696
1041
2438
4554
5034
4258
4238
1629
2352
4725
1967
5126
3854
581
2448
4235
262
4371
4727
1184
935
4738
1011
2774
5096
3335
3722
2439
3351
3945
2119
4253
1067
3345
3439
2114
3462
1066
4454
4037
1966
4439
2353
2258
191
2115
117
167
3461
4724
4257
4734
5117
2884
4151
4843
4207
3077
884
166
1723
1945
814
1732
1395
1817
3349
2590
1233
5033
3046
3072
2358
1412
3454
4050
3565
2296
2372
111
3350
4256
4732
3455
3566
4763
3753
2769
4681
3594
2584
828
4560
1089
4251
4327
4259
1703
5169
3840
4387
1721
57
4906
4730
2067
2432
1320
1091
4049
1843
5027
4064
3550
349
2317
3258
333
2340
1115
1892
1095
525
420
734
1868
3295
5013
3839
5031
4766
2339
4250
3166
4733
3478
945
1017
5131
4024
4561
3433
986
3551
3047
2680
4413
4767
2888
3236
4255
3257
4395
365
2681
1623
608
3944
3996
4781
1911
2219
5026
3800
4038
1568
3752
1344
4737
3252
4333
1704
1265
4440
4736
3256
2297
2889
1969
5133
1963
553
56
3995
2461
1374
4873
3440
3498
4213
116
3497
1731
3815
4731
2962
1589
2882
4705
602
1090
1226
2374
1588
3962
4743
5010
3061
4912
1645
4025
5168
2984
1644
5007
1910
5151
3534
195
363
4742
3856
3773
1605
4728
3855
5032
1942
1263
2318
3482
4332
268
3535
3434
547
714
2299
3477
3165
332
4744
1944
2983
3925
1016
2373
4237
189
659
3794
1319
4499
1646
3042
269
1562
2682
4031
2977
3056
4770
1948
3501
1905
2333
2676
5148
419
1232
5166
3581
4706
249
3048
5012
634
110
825
2978
3979
1169
791
495
4229
326
4389
631
2475
3070
1610
1727
4483
2588
830
1490
5144
1015
4722
2582
5006
3158
4067
3496
1010
1149
2375
733
1379
3694
3850
3517
1587
3715
2589
3769
1168
3857
628
3164
1583
1744
1570
1746
712
677
3060
2462
5162
3519
2314
3716
4236
1962
4066
5153
842
4419
3827
3347
2473
860
479
2316
1400
774
2334
4729
2467
1147
4479
3814
1989
1904
2369
2963
4437
4010
2295
4701
3878
761
2315
4761
4468
474
2469
3159
1564
2761
1665
1909
2883
4065
3786
188
4762
4482
5142
2320
2312
1170
2468
3481
1094
4088
270
4326
2957
4388
2293
4405
3338
1733
3260
2771
4455
1604
3909
3069
4665
1566
4142
1968
2474
4060
4707
2583
2456
4465
85
4501
3084
1739
4905
3337
2471
1260
3851
4114
1947
3044
247
3911
4739
3904
1088
3889
1856
4474
3018
4461
5011
3050
4206
4726
3058
2472
3735
1706
2940
938
1532
2262
2776
2747
4495
3043
3323
1591
4723
2746
113
3905
3238
3785
3476
3770
1742
3322
4265
4231
713
360
4275
1368
2760
3064
2762
873
194
1249
2260
4089
790
4459
5141
4497
1533
3353
5167
3868
4780
3456
377
5051
468
1941
4175
4267
2777
2466
2919
2337
4119
1745
2470
309
4880
4680
1736
1295
1585
1531
3499
3336
5135
4080
2139
3870
296
812
3873
4772
2661
4709
3475
4061
3216
3734
3071
760
4230
1277
3352
395
3318
3829
3896
4795
5146
4420
3480
1528
2377
3891
798
2965
4503
2678
3346
4394
1640
3324
1743
3871
4143
4121
4106
325
276
1176
215
4074
4101
3063
3049
1831
3354
2756
1735
2465
2960
4703
1710
3926
3332
1393
2662
3057
4083
732
2376
1215
1225
4274
4081
859
1729
4682
5041
1209
1590
2319
4087
1378
4458
4115
780
4688
3895
4186
551
1514
3500
2742
1741
1308
1740
5050
2243
2748
4708
2194
248
2959
4208
2458
2450
3877
1036
3882
4907
2964
1247
5140
4078
3237
3239
2371
4901
1584
2684
394
987
731
4105
736
1880
4486
2663
2256
1372
4113
711
2887
1478
2255
267
3828
1567
4754
872
1465
2457
4469
2261
1642
3903
4144
1167
2207
4406
3253
737
2683
1042
4502
4202
494
4678
315
717
314
1152
3259
4072
1148
3907
4903
1367
4171
4757
266
730
1394
3879
2129
1728
1647
4138
4484
1214
2142
1146
4775
2619
3864
1527
1172
2136
216
4341
1173
4768
1195
272
4306
735
3875
2958
1171
653
142
5094
2160
4463
4289
841
2943
376
3910
144
295
4177
4179
4759
3874
2292
2050
4702
1366
1734
1117
3160
2922
4676
1175
2141
1526
4485
4684
5082
4750
1111
2460
2937
4304
252
4079
2657
2173
654
87
5134
4136
4084
3233
275
1068
3320
779
290
2885
3901
2143
3479
1569
2370
755
3869
2128
2138
1624
478
4909
4305
4137
4496
493
2170
4451
2132
2886
5052
3863
2134
5043
2763
217
2433
4311
4210
2697
2135
5071
1307
1439
2451
255
5067
5152
246
1166
5081
715
2490
1276
2916
3163
4173
2750
2941
4117
2137
4093
2298
4111
1165
3883
1695
4452
2126
5054
1641
4291
5139
4748
4073
4120
3867
2942
58
3865
211
2758
265
2065
2784
3956
4094
843
1753
3906
250
3884
1563
2764
4276
2961
5072
1038
3580
2920
2401
1044
2744
3334
5093
3700
2034
4116
3326
4683
4773
2881
3241
4794
2482
3325
2921
3360
466
3340
4077
1360
2489
709
3240
1672
3333
4295
472
1190
2140
168
467
2175
347
1150
3798
4296
4278
4104
4752
5087
4687
3876
2743
1361
2168
3213
4112
3992
1760
1144
4086
5085
2999
4082
4075
2047
81
4668
4125
4178
2155
3993
716
2587
738
3915
3339
741
2749
3273
1227
4185
4552
1427
4543
3899
4908
3747
1196
2775
3991
4411
461
1119
60
378
2231
4272
2153
2643
219
5079
4740
2880
3902
4470
1113
4400
3219
4204
989
4747
4774
710
2010
4266
5048
5058
3938
3894
2169
2313
1656
3976
4741
4746
3518
1070
1453
4340
2622
4109
2480
1043
2664
3086
4902
3218
4662
2171
5020
3745
1965
1761
4099
2130
3195
2049
89
5080
4457
4677
2521
2757
4758
4244
2524
4172
2491
3192
3729
2159
244
3796
2659
3888
683
4203
4551
3783
5038
5055
3197
5053
3767
3162
1738
1502
2637
4268
2642
1064
3912
4408
162
2621
2385
2665
52
4122
3955
4667
4007
4302
809
2064
5040
251
3710
3963
213
2182
5046
5049
983
2487
3977
792
3161
2463
1365
1380
2998
740
5047
1611
245
2131
2616
2923
170
1151
4008
2918
2641
988
4264
3866
2400
4157
2133
1933
3235
2488
2773
1795
2945
1687
5086
136
4282
1953
5060
4279
1782
1792
2586
4102
4118
3746
83
1756
2147
3234
1118
4324
2944
1155
271
4283
2165
3897
3892
3975
1762
3939
4277
143
2585
4006
137
2479
1294
720
3254
4076
3887
4301
2033
2917
3957
1763
1145
5083
4270
460
3087
2511
3495
4108
4323
3701
2174
2938
3797
3913
4745
2639
5077
2699
3918
3914
4262
5045
1037
4124
4666
3765
3000
4107
1748
2398
3198
3766
5065
4778
2485
2997
1952
4271
15
4410
2127
2494
2492
2167
2477
4284
1765
2506
2510
4402
1791
3275
1758
4545
4923
4123
5078
2645
3886
2486
1752
1797
2146
344
2519
1775
4404
3458
4776
1805
218
1931
4100
1998
2493
480
1112
4273
2104
5039
1759
2361
3727
4407
1777
2785
3703
2624
1750
5154
3432
408
3085
3890
3200
811
2044
3881
4096
5044
4092
5042
1669
3908
4523
1244
982
3880
4670
5022
2166
2061
3199
2580
212
2924
3081
1954
1993
4269
88
3362
4209
3274
2532
4777
826
4263
2483
2618
2581
4664
1751
3437
2856
719
1069
4219
3361
1632
1781
4246
465
1648
2092
3220
3697
2504
3100
1999
510
2148
2291
4090
3092
2526
3872
2481
2698
3156
2786
2644
3920
59
169
4643
2517
4091
2017
3094
2464
1655
1823
4309
810
1246
4159
4646
1261
3098
3076
777
4351
4180
2996
2163
1793
4669
2079
307
1575
3023
1063
2516
2158
3709
1683
3363
3438
3708
567
1951
54
4504
3728
3699
3214
3215
3089
346
4307
345
82
2091
4085
1979
1207
2522
3704
1788
1757
1188
2078
2640
2412
4401
1189
594
3001
4097
1980
2225
1686
2478
1957
2617
2677
3457
5088
3026
1874
1418
1555
289
4945
3002
3357
29
1849
2638
4939
3782
2284
1496
794
4312
3099
4663
2770
3459
2304
2103
1930
2726
1245
273
2995
753
2497
5073
2415
4303
288
1936
5147
3698
163
4471
2344
3217
3862
4456
3436
1709
4938
2787
1754
2016
2498
1769
1373
4297
771
2700
1787
1755
4944
1898
361
1768
1871
2443
2484
1950
4245
4760
1671
3702
1956
2009
3302
1790
1621
1713
1574
2518
18
808
53
1932
2350
2781
2525
5021
1949
1749
3885
4808
3299
1620
1714
1796
2303
3097
3276
1305
3705
565
2723
2151
2152
508
2658
1243
4221
1154
4544
1955
13
4943
2282
620
5066
2200
5084
1789
4937
1576
1573
1553
513
857
1934
2177
1615
2442
3781
1579
4753
2178
2694
2156
2287
4158
4685
2349
2305
164
2308
2302
3095
3091
669
4910
981
3365
1421
5091
102
3693
3010
3262
2499
539
4357
2556
1552
4290
4464
507
1770
1826
4805
343
1820
2686
4487
4095
1960
3096
5074
4645
1701
405
3090
12
3359
2430
4506
407
1700
5064
570
3270
2702
254
4354
643
564
2300
1852
2176
2929
3037
1846
2395
1895
2788
2331
1558
3093
473
2701
1929
4941
3685
3919
3691
4308
2384
3025
1601
4310
1901
1666
2800
5075
2969
793
1520
2416
4299
2794
1002
2172
3301
4940
2281
3319
3376
4935
2306
2798
3370
3686
3278
2161
3692
2927
4792
2527
2909
1959
5070
1577
2926
4929
1572
4529
3272
4386
4183
4294
1726
667
3364
2912
2144
4335
5057
2789
3900
1415
2307
4657
5090
3368
1571
1080
2382
5023
3358
1974
2222
1554
45
5017
592
2520
3825
2696
1550
1493
3369
1602
758
4035
1737
1420
5003
4936
2368
327
618
2868
2330
100
1631
2154
138
2725
2544
2930
4356
1212
2928
2783
2311
2792
537
3286
2925
2793
4807
542
2429
5063
2228
4110
642
4896
2799
1935
2283
1653
2906
2060
2933
3277
1939
1062
2279
5180
752
2737
5004
1798
2285
1879
1557
312
2360
4507
5179
536
3083
2931
4505
1556
4247
4369
2633
2975
2710
4228
3687
1229
3371
1873
1875
597
3959
4135
4546
2455
4521
1824
4288
648
1725
4950
1000
180
2669
3375
5173
4989
4021
4197
2782
3209
5172
2149
4942
2612
99
1991
3749
5174
1419
591
4317
3313
3922
5068
1206
2310
2629
2797
5089
3942
4227
204
4531
4980
3373
1499
5176
1078
4974
1825
3068
999
754
4960
4952
1938
4931
3203
3009
3115
2286
4584
672
1850
4582
3732
623
2145
4281
1899
4583
4990
4318
1005
1639
74
105
2227
3936
1029
2454
2904
3344
2226
2290
3088
1055
4103
4961
4220
4981
4146
2905
43
1828
2626
4540
4315
3208
5178
2907
1783
329
3245
4577
2767
4976
1341
2795
2796
3372
3941
4385
2030
3750
5177
666
2031
4580
1498
617
2974
3207
3118
2625
4996
2986
3893
3940
2606
4098
772
3916
306
2910
1561
1851
4160
1973
4314
3726
3182
1471
5025
4367
5056
4548
2530
3114
3923
795
2089
4022
2045
2367
3367
3960
3748
3107
3343
3202
3205
3112
178
3707
3958
1877
5175
1497
1854
4562
3185
2411
4316
3366
4576
2325
4968
4994
1104
1822
2609
4579
155
1848
3186
1581
2280
2695
2994
4963
1551
3201
4574
2790
1897
4129
4575
2768
4154
5171
4955
4962
4298
2623
5059
1928
1682
4243
1652
3811
4578
5019
441
3067
4338
4542
1827
4953
3105
1495
4286
972
2523
3102
3082
4958
2791
2013
3713
127
4964
1582
129
1501
1027
3041
4134
2908
2675
4287
4241
4957
153
4581
3285
3062
72
516
1578
4292
4988
3144
2709
1878
3119
183
5170
4967
3374
1900
2932
3251
2342
2628
3117
3921
1292
177
1560
827
4995
3151
1613
2202
2610
2630
2224
3157
2627
4949
1102
1595
4992
108
1872
3111
2396
3730
4986
21
5062
4368
5061
645
4947
3108
2289
2604
1008
4280
4930
2230
3146
1902
2509
3113
2911
2011
870
2674
2720
3116
2939
3110
2568
1416
1083
1776
1143
1522
362
3149
3937
1801
2150
5024
3206
1785
1077
4494
4530
1996
2229
3917
5018
2251
3183
1053
1794
3040
4991
2179
4547
3296
906
3187
4959
1667
2505
2514
3129
1473
573
4956
1780
1876
3712
202
308
3812
1086
1262
186
566
1853
1821
1422
1035
2252
2936
4969
1208
243
4162
3145
4700
3250
3104
3391
2223
1228
80
1110
3131
4249
2250
107
3188
4222
2029
4248
1193
3180
3135
2324
3065
1446
4216
509
1494
20
1472
1423
2062
1990
2607
4987
392
5195
2815
600
51
3706
515
3136
1847
96
135
1896
2528
1972
1500
1764
1061
3109
2028
1521
2807
210
3317
14
2955
1278
1085
3106
545
161
3390
2741
1523
1187
3103
2203
757
101
79
4599
2249
3054
2512
2611
4951
5185
3181
599
2605
4313
1447
3194
3689
3420
996
2656
856
3394
1638
2608
3141
328
504
4224
572
3381
626
293
3690
4285
538
3422
751
4997
185
4900
134
2632
3711
4591
160
674
3142
3688
3387
3143
775
2935
1799
3007
4242
2507
209
3731
16
5194
544
1001
2844
3231
4932
675
708
3021
4954
2707
4201
2985
2812
1774
2502
2164
4699
2754
4598
3006
2967
644
3392
533
2246
4541
3184
3427
1474
2814
3150
4934
330
2197
3122
287
650
2529
2818
3123
5187
4926
1517
511
2851
3405
2846
3388
2027
1711
5226
593
4642
505
126
1007
1800
5209
4841
1034
9
625
1107
568
1026
1032
2157
971
974
3393
3261
2816
4490
1109
3425
1594
198
561
2755
3212
4928
2817
3204
3407
619
639
2829
5076
5000
77
2323
3331
10
4161
2802
4218
3380
2503
174
2740
979
4984
207
5186
3155
5225
2501
3421
2966
2972
2721
3271
4532
588
977
4534
3243
2254
4334
2804
2811
3283
2706
562
1058
4948
50
3973
2810
4975
3297
4641
3282
4589
3330
4526
1650
1230
3139
44
4630
1052
756
3386
2819
3055
1651
2347
3316
2636
1772
1525
1079
95
3080
668
4493
4156
2845
3780
1468
2813
4432
503
2949
4633
3395
5115
3232
2205
1074
3020
2836
1519
197
5224
5215
995
48
3898
71
1784
8
646
2248
2649
158
2199
73
4155
560
2496
2379
5196
4528
2835
3378
2914
179
968
2808
1097
2685
4927
1048
663
2378
123
1635
3417
201
2843
2162
4223
1210
662
3990
4993
1633
1291
595
68
4629
1101
1022
5192
2364
4628
3389
3411
4600
4533
4619
4200
5211
5229
3419
2631
1073
4977
614
3225
4999
3211
5198
2413
4998
149
4973
2667
670
4979
2253
621
2993
4163
4217
1448
2874
97
128
3418
540
2381
1060
2362
148
152
532
103
4972
3764
2550
5202
4971
5069
3134
173
2806
2850
2076
2201
587
5231
1618
2950
1684
4966
997
1023
310
3382
5221
391
2823
2635
4398
4293
3196
638
5223
4613
39
1442
2341
4399
2841
1927
1470
3399
3974
3398
967
2765
4635
2198
664
3423
67
3036
1054
534
2615
2204
3385
2992
4615
1445
1518
1081
3248
2500
3384
4627
1811
5222
2736
4300
3426
1003
4352
2655
589
4527
1524
2495
1476
4983
4606
122
4965
17
4620
4625
2780
3341
38
2847
2012
5197
4626
2650
1992
1186
3148
292
4568
2824
3191
1862
4596
3379
613
773
4899
2614
5191
154
3154
640
3079
3400
4602
2822
3356
1450
5188
3138
4592
3226
4336
4586
2343
203
175
2842
2075
5182
4590
5227
4182
2672
1475
2803
2213
2805
1192
2779
2440
2831
3147
5184
2809
1075
1406
3153
1668
4631
2125
2397
1977
3355
4791
5190
5230
4607
4595
11
4337
3269
1408
506
1771
104
5199
5203
1976
3190
2693
4594
4970
512
3121
4603
1813
2877
181
5204
1596
4634
5193
4675
4661
647
4601
2666
3120
4170
2553
1614
3130
1444
2515
3132
3003
3152
4608
2278
286
2692
5183
563
1549
1191
3268
1994
3137
569
4181
3428
1786
3412
3242
4588
4933
541
596
3124
641
4127
3383
671
2574
1484
535
2903
5189
4128
2989
2849
3763
1839
622
590
4166
2852
973
1858
4985
1649
1837
1861
1004
1028
998
2301
776
2476
2956
3126
1747
3128
3413
1766
2620
98
291
2046
1105
1773
182
5232
4982
3004
2837
3279
4978
4570
2551
1903
2215
1819
2427
616
1082
3125
156
975
2875
2237
1407
1870
5228
665
3281
1443
4169
2703
5015
2705
1818
1508
1459
2363
5210
1433
4621
42
1449
3224
130
1698
69
2848
5016
2552
2648
1076
1486
3424
1050
46
2830
4674
1612
1411
4636
131
3431
1971
2970
1816
1024
4597
132
1413
5217
2879
1807
1894
2873
1869
4240
1778
3406
1885
1414
205
969
176
124
1836
3265
3410
2247
3415
2221
1634
1599
2876
2855
1888
1891
5219
2328
2188
3051
3312
1099
2508
3127
1812
4632
2872
2209
2220
75
1863
199
2549
2426
4569
3221
2555
1864
976
4539
1842
1049
5216
5235
1886
2212
2014
1833
150
1480
2548
2322
1483
5214
1106
1402
4239
1405
2946
2834
311
2839
3052
1882
4618
3280
1838
125
2218
1510
1485
1845
2554
2689
3038
4639
1469
3022
4623
2704
1479
1593
1806
1031
1697
2987
4614
2345
1417
70
2988
5234
1467
1516
2214
3179
1832
76
5208
5218
3404
5233
1598
1211
1401
1893
4587
1844
1616
1881
2190
615
970
4538
2953
2208
4611
2245
2575
2239
2196
3140
1103
1057
4153
1975
1887
2871
1461
1779
4622
2722
5207
1865
5212
2968
5201
1489
206
3414
1435
4638
2244
1515
4152
47
3403
2195
1030
2853
200
4612
5206
4671
3298
4637
2513
4593
1808
3408
2738
2184
1840
1592
2827
1767
3429
157
1409
3430
4605
1814
1859
1834
1441
2380
1503
651
2838
40
3133
3314
4721
2603
2576
1995
3397
1460
1434
3244
3402
2826
5200
1883
2233
2232
1491
2668
4616
2189
1440
3228
2238
2947
3005
4571
2854
2670
4610
2828
1860
2687
2547
3246
1455
2321
1889
151
2236
1481
2210
1507
1429
2577
1428
2752
2242
5205
1866
2952
1509
4604
2652
5037
2751
1504
2216
2183
4573
2571
1051
2858
3327
1454
1056
3222
2646
3396
4565
3193
1487
1867
1464
3101
1884
3328
1513
2820
3229
1403
2821
2832
5245
4660
2878
1841
2187
1890
1511
1098
4261
2653
5253
4572
5246
2217
2915
1488
2862
5239
5247
2948
1458
5238
5248
4609
5244
2538
1100
2688
2365
1482
2825
41
4567
1025
5252
1809
3264
5254
2211
2579
4488
2191
1810
1462
5237
2327
5213
2240
2857
5243
3696
4071
2234
2562
2533
1597
5264
4658
5258
5220
4656
4164
4353
5364
1636
1404
2241
5257
2951
1466
4215
5365
1505
2346
3223
3416
2578
1512
2558
5346
2326
5289
2573
5315
4566
5360
2647
5363
1456
4672
4525
5352
5250
4617
4489
5332
1438
5325
991
497
5309
4897
4925
5367
5311
1463
93
92
1432
4624
64
4491
5236
1617
2840
5323
2186
3861
2572
3695
1
5359
496
5317
2192
5324
2235
5361
5330
1835
5347
964
5274
2193
993
5249
2539
2990
5255
5339
992
4214
529
5351
5261
1457
556
498
2557
5302
3377
5316
5260
500
4524
2971
5329
5345
2570
3263
5
2540
5327
2801
4
501
5296
4198
5340
1436
3409
5303
5366
5304
4520
5368
5338
2864
2541
5353
1506
1970
5251
4147
2563
2865
5242
2535
5294
4924
35
4145
4126
5240
2546
2833
2859
5241
4196
5295
2545
528
980
4132
2867
5299
5331
61
5390
2185
91
2543
5328
2866
2869
611
2
3
5291
5357
5326
5322
5298
6
32
2564
1071
5297
1019
90
5293
3401
119
1020
965
145
2860
555
526
5358
1815
2537
990
5321
2651
5292
171
961
2534
65
1430
5270
2536
120
2542
5284
5272
1045
5282
1410
4549
5310
5362
5271
5280
5265
584
118
963
558
610
1492
5266
2569
5287
5278
5286
585
5428
636
5369
5371
3266
5355
5318
5285
2863
5342
2870
2671
5333
33
2565
5319
5259
5335
5424
1437
5306
5314
583
5290
527
5269
1857
5307
4396
3247
5273
4167
5431
5349
5344
499
5288
2690
1431
5370
2559
5308
5334
5283
1018
5356
5320
5267
2861
3227
5312
5348
5416
5380
2566
5354
5300
5181
5336
5276
36
5263
5341
4564
5268
5256
5447
5448
5343
4321
4165
5262
5386
5441
4320
5446
5305
5388
4585
1803
63
4946
5411
2560
5426
4149
1398
34
5375
5277
5281
4319
5301
5439
5313
1855
5337
2561
5393
146
5374
2567
5421
4563
1829
2206
31
1399
62
962
557
530
5444
1451
1477
1425
1804
4130
5407
5279
2180
1397
5438
1830
1046
1802
5389
5406
5445
5350
4131
5451
5437
5401
5414
5454
5396
5387
5001
5275
4535
5436
5417
0
5400
5442
4522
5410
5452
5409
5450
5429
4225
5402
5385
5381
5427
4383
5443
5440
5433
5449
5412
5422
5395
5415
5383
5394
2181
5404
4382
5408
1426
5373
5435
5423
5378
5392
5425
5391
5379
5453
1424
5397
5432
5455
5420
4211
5430
5419
5398
5399
5403
5413
1452
5405
5382
5372
5418
1396
5377
5384
5434
5376
4148
4150
4536
4212
3549
3533
3532
2531
4640
